%YAML 1.1
%TAG !u! tag:unity3d.com,2011:
--- !u!241 &24100000
AudioMixerController:
  m_ObjectHideFlags: 0
  m_CorrespondingSourceObject: {fileID: 0}
  m_PrefabInstance: {fileID: 0}
  m_PrefabAsset: {fileID: 0}
  m_Name: MasterMixer
  m_OutputGroup: {fileID: 0}
  m_MasterGroup: {fileID: 24300002}
  m_Snapshots:
  - {fileID: 24500006}
  m_StartSnapshot: {fileID: 24500006}
  m_SuspendThreshold: -80
  m_EnableSuspend: 1
  m_UpdateMode: 0
  m_ExposedParameters:
  - guid: b19e1939426e1fe4f81e9f2b35462849
    name: Volume
  m_AudioMixerGroupViews:
  - guids:
    - a28ad8057c5d45943bb72f64280405b1
    name: View
  m_CurrentViewIndex: 0
  m_TargetSnapshot: {fileID: 24500006}
--- !u!243 &24300002
AudioMixerGroupController:
  m_ObjectHideFlags: 0
  m_CorrespondingSourceObject: {fileID: 0}
  m_PrefabInstance: {fileID: 0}
  m_PrefabAsset: {fileID: 0}
  m_Name: Master
  m_AudioMixer: {fileID: 24100000}
  m_GroupID: a28ad8057c5d45943bb72f64280405b1
  m_Children: []
  m_Volume: b19e1939426e1fe4f81e9f2b35462849
  m_Pitch: d10d4d1e68f0be54ea82194366b0e2e7
  m_Send: 00000000000000000000000000000000
  m_Effects:
  - {fileID: 24400004}
  m_UserColorIndex: 0
  m_Mute: 0
  m_Solo: 0
  m_BypassEffects: 0
--- !u!244 &24400004
AudioMixerEffectController:
  m_ObjectHideFlags: 3
  m_CorrespondingSourceObject: {fileID: 0}
  m_PrefabInstance: {fileID: 0}
  m_PrefabAsset: {fileID: 0}
  m_Name: 
  m_EffectID: fb953ba6557ebdd45a3cb044d1f5a1ca
  m_EffectName: Attenuation
  m_MixLevel: 65fca141d1767b3419b2b7a2c841aa54
  m_Parameters: []
  m_SendTarget: {fileID: 0}
  m_EnableWetMix: 0
  m_Bypass: 0
--- !u!245 &24500006
AudioMixerSnapshotController:
  m_ObjectHideFlags: 0
  m_CorrespondingSourceObject: {fileID: 0}
  m_PrefabInstance: {fileID: 0}
  m_PrefabAsset: {fileID: 0}
  m_Name: Snapshot
  m_AudioMixer: {fileID: 24100000}
  m_SnapshotID: d63865cca7cf78d429b83f5fe17bcbbd
  m_FloatValues:
    143efca3a614cdb48bb62768af0dc645: -0.02577656
    b19e1939426e1fe4f81e9f2b35462849: 0
    d10d4d1e68f0be54ea82194366b0e2e7: 1
  m_TransitionOverrides:
    b19e1939426e1fe4f81e9f2b35462849: 1
