%YAML 1.1
%TAG !u! tag:unity3d.com,2011:
--- !u!114 &11400000
MonoBehaviour:
  m_ObjectHideFlags: 0
  m_CorrespondingSourceObject: {fileID: 0}
  m_PrefabInstance: {fileID: 0}
  m_PrefabAsset: {fileID: 0}
  m_GameObject: {fileID: 0}
  m_Enabled: 1
  m_EditorHideFlags: 0
  m_Script: {fileID: 11500000, guid: e143c73d984bdda40b026ecbe282d5f5, type: 3}
  m_Name: DataSprites
  m_EditorClassIdentifier: 
  Downflap:
  - {fileID: 21300000, guid: 0e03a541cc96c25469a45d9455ea6562, type: 3}
  - {fileID: 21300000, guid: a95f6a5cf017db642a76c9aa5d00bcb4, type: 3}
  - {fileID: 21300000, guid: 283421ac218fb7e4e8bc5e04592dade0, type: 3}
  Midflap:
  - {fileID: 21300000, guid: 7282107fd6542d54a996da9dc1296bbf, type: 3}
  - {fileID: 21300000, guid: fb7fdb7c71ed1b840a24df2d6a49fadb, type: 3}
  - {fileID: 21300000, guid: 1665aebaa06fb944c986d49cf504a425, type: 3}
  Upflap:
  - {fileID: 21300000, guid: 07ee74e422c00aa49b253e6288a0e0a1, type: 3}
  - {fileID: 21300000, guid: f7303f5cfaa69a54c883dcc1ff9be2cd, type: 3}
  - {fileID: 21300000, guid: 3923c13159410fe469cf1f634468ceda, type: 3}
